ToolSvc.WTagger                                   WARNING duplicated property name 'Tau21WTAName', see https://its.cern.ch/jira/browse/GAUDI-1023
ToolSvc.WTagger                                   WARNING duplicated property name 'Tau32WTAName', see https://its.cern.ch/jira/browse/GAUDI-1023
ToolSvc.WTagger                                   WARNING duplicated property name 'Tau42WTAName', see https://its.cern.ch/jira/browse/GAUDI-1023
ToolSvc.WTagger                                   WARNING duplicated property name 'C2Name', see https://its.cern.ch/jira/browse/GAUDI-1023
ToolSvc.WTagger                                   WARNING duplicated property name 'D2Name', see https://its.cern.ch/jira/browse/GAUDI-1023
ToolSvc.WTagger                                   WARNING duplicated property name 'e3Name', see https://its.cern.ch/jira/browse/GAUDI-1023
ToolSvc.WTagger                                   WARNING duplicated property name 'L2Name', see https://its.cern.ch/jira/browse/GAUDI-1023
ToolSvc.WTagger                                   WARNING duplicated property name 'L3Name', see https://its.cern.ch/jira/browse/GAUDI-1023
ToolSvc.WTagger                                   WARNING duplicated property name 'Ntrk500Name', see https://its.cern.ch/jira/browse/GAUDI-1023
ToolSvc.ZTagger                                   WARNING duplicated property name 'Tau21WTAName', see https://its.cern.ch/jira/browse/GAUDI-1023
ToolSvc.ZTagger                                   WARNING duplicated property name 'Tau32WTAName', see https://its.cern.ch/jira/browse/GAUDI-1023
ToolSvc.ZTagger                                   WARNING duplicated property name 'Tau42WTAName', see https://its.cern.ch/jira/browse/GAUDI-1023
ToolSvc.ZTagger                                   WARNING duplicated property name 'C2Name', see https://its.cern.ch/jira/browse/GAUDI-1023
ToolSvc.ZTagger                                   WARNING duplicated property name 'D2Name', see https://its.cern.ch/jira/browse/GAUDI-1023
ToolSvc.ZTagger                                   WARNING duplicated property name 'e3Name', see https://its.cern.ch/jira/browse/GAUDI-1023
ToolSvc.ZTagger                                   WARNING duplicated property name 'L2Name', see https://its.cern.ch/jira/browse/GAUDI-1023
ToolSvc.ZTagger                                   WARNING duplicated property name 'L3Name', see https://its.cern.ch/jira/browse/GAUDI-1023
ToolSvc.ZTagger                                   WARNING duplicated property name 'Ntrk500Name', see https://its.cern.ch/jira/browse/GAUDI-1023
ToolSvc.TopTagger                                 WARNING duplicated property name 'Tau21WTAName', see https://its.cern.ch/jira/browse/GAUDI-1023
ToolSvc.TopTagger                                 WARNING duplicated property name 'Tau32WTAName', see https://its.cern.ch/jira/browse/GAUDI-1023
ToolSvc.TopTagger                                 WARNING duplicated property name 'Tau42WTAName', see https://its.cern.ch/jira/browse/GAUDI-1023
ToolSvc.TopTagger                                 WARNING duplicated property name 'C2Name', see https://its.cern.ch/jira/browse/GAUDI-1023
ToolSvc.TopTagger                                 WARNING duplicated property name 'D2Name', see https://its.cern.ch/jira/browse/GAUDI-1023
ToolSvc.TopTagger                                 WARNING duplicated property name 'e3Name', see https://its.cern.ch/jira/browse/GAUDI-1023
ToolSvc.TopTagger                                 WARNING duplicated property name 'L2Name', see https://its.cern.ch/jira/browse/GAUDI-1023
ToolSvc.TopTagger                                 WARNING duplicated property name 'L3Name', see https://its.cern.ch/jira/browse/GAUDI-1023
ToolSvc.TopTagger                                 WARNING duplicated property name 'Ntrk500Name', see https://its.cern.ch/jira/browse/GAUDI-1023
ToolSvc.JVTEfficiencyTool                         WARNING Supplied SF file JetJvtEfficiency/Moriond2018/JvtSFFile_EMPFlowJets.root doesn't seem to contain SFs for NNJvt, falling back to dummy SFs ...
     'NNParamFile':'NNJVT.Network.graph.Offline.Nonprompt_All_MaxWeight.json'



 Reading JVT likelihood histogram from:


     'NNCutFile':'NNJVT.Cuts.FixedEffPt.Offline.Nonprompt_All_MaxW.json'



SUSYToolsAlg.SUSYTools                            WARNING *** THE ELECTRON TRIGGER SF MIXED AND SF DILEP ARE CURRENTY NOT SUPPORTED IN RUN3 ***
SUSYToolsAlg.SUSYTools                            WARNING *** THE ELECTRON CHARGE FLIP SF ARE CURRENTY NOT SUPPORTED ***
ToolSvc.TauEffTool_Medium                         WARNING 2022-prerec tag are pre-recommendations and still under development.
 CDI file build number: Custom
 Your configuration looks good! Available labels are : 
| DL1dv01
|\__ AntiKt4EMPFlowJets
|   |\__FixedCutBEff_85
|   |   \___ (0) B
|   |   \___ (1) C
|   |   \___ (2) Light
|   |   \___ (3) T
number of taggers: 6
DL1dv00, DL1dv01, DL1r, GN120220509, GN2v00LegacyWP, GN2v00NewAliasWP, 
number of jet collections: 2
AntiKt4EMPFlowJets, AntiKtVR30Rmax4Rmin02TrackJets, 
number of working points: 5
Continuous, FixedCutBEff_60, FixedCutBEff_70, FixedCutBEff_77, FixedCutBEff_85, 
=== CalibrationDataInterfaceROOT::CalibrationDataInterfaceROOT ===
 taggerName           : DL1dv01
 Systematic strategy : SFGlobalEigen

 CDI file build number: Custom

======= end of CalibrationDataInterfaceROOT instantiation ========
CalibrationDataInterfaceROOT->retrieveCalibrationIndex :  container name is 410470_Eff
CalibrationDataInterface: retrieved container DL1dv01/AntiKt4EMPFlowJets/FixedCutBEff_85/Light/410470_Eff (with comment: 'efficiencies from sample PowhegPythia8' and hadronisation setting 'Pythia8EvtGen')
CalibrationDataInterface: retrieved container DL1dv01/AntiKt4EMPFlowJets/FixedCutBEff_85/Light/default_SF (with comment: 'negative_tag_Zjet+extrap[Run2MCcalib]' and hadronisation setting 'Pythia8EvtGen')
CalibrationDataInterfaceROOT->retrieveCalibrationIndex : container DL1dv01/AntiKt4EMPFlowJets/FixedCutBEff_85/Light/default_SF already cached! 
CalibrationDataInterfaceROOT->retrieveCalibrationIndex :  container name is 410470_Eff
CalibrationDataInterface: retrieved container DL1dv01/AntiKt4EMPFlowJets/FixedCutBEff_85/C/410470_Eff (with comment: 'efficiencies from sample PowhegPythia8' and hadronisation setting 'Pythia8EvtGen')
CalibrationDataInterface: retrieved container DL1dv01/AntiKt4EMPFlowJets/FixedCutBEff_85/C/default_SF (with comment: 'ttbarC+extrap[Run2MCcalib_ttC]' and hadronisation setting 'Pythia8EvtGen')
CalibrationDataInterfaceROOT->retrieveCalibrationIndex : container DL1dv01/AntiKt4EMPFlowJets/FixedCutBEff_85/C/default_SF already cached! 
CalibrationDataInterfaceROOT->retrieveCalibrationIndex :  container name is 410470_Eff
CalibrationDataInterface: retrieved container DL1dv01/AntiKt4EMPFlowJets/FixedCutBEff_85/B/410470_Eff (with comment: 'efficiencies from sample PowhegPythia8' and hadronisation setting 'Pythia8EvtGen')
CalibrationDataInterface: retrieved container DL1dv01/AntiKt4EMPFlowJets/FixedCutBEff_85/B/default_SF (with comment: 'ttbar_PDF+extrap[Run2MCcalib]' and hadronisation setting 'Pythia8EvtGen')
CalibrationDataInterfaceROOT->retrieveCalibrationIndex : container DL1dv01/AntiKt4EMPFlowJets/FixedCutBEff_85/B/default_SF already cached! 
CalibrationDataInterfaceROOT->retrieveCalibrationIndex :  container name is 410470_Eff
CalibrationDataInterface: retrieved container DL1dv01/AntiKt4EMPFlowJets/FixedCutBEff_85/T/410470_Eff (with comment: 'efficiencies from sample PowhegPythia8' and hadronisation setting 'Pythia8EvtGen')
CalibrationDataInterface: retrieved container DL1dv01/AntiKt4EMPFlowJets/FixedCutBEff_85/T/default_SF (with comment: 'ttbarC+addSys[newsys]+extrap[Run2MCcalib_ttC]' and hadronisation setting 'Pythia8EvtGen')
CalibrationDataInterfaceROOT->retrieveCalibrationIndex : container DL1dv01/AntiKt4EMPFlowJets/FixedCutBEff_85/T/default_SF already cached! 
     'NNParamFile':'NNJVT.Network.graph.Offline.Nonprompt_All_MaxWeight.json'



 Reading JVT likelihood histogram from:


     'NNCutFile':'NNJVT.Cuts.FixedEffPt.Offline.Nonprompt_All_MaxW.json'



ToolSvc.metSignificance_AntiKt4EMPFlow            WARNING Setup the muon calibration tool with calib mode 1. Please consider to configure the tool via the 'MuonCalibTool' property.
ToolSvc.grl                                       WARNING Set to pass-through mode.
ToolSvc.TauEffTool_Medium                         WARNING Could not determine MC campaign from run number! The mu dependent systematic of the trigger scale factors should not be trusted. Current (440543). Will only print this warning once.
SUSYToolsAlg                                      WARNING No PV found for this event! Skipping...
SUSYToolsAlg                                      WARNING No PV found for this event! Skipping...
SUSYToolsAlg                                      WARNING No PV found for this event! Skipping...
SUSYToolsAlg                                      WARNING No PV found for this event! Skipping...
SUSYToolsAlg                                      WARNING No PV found for this event! Skipping...
ToolSvc.TopTagger                                 WARNING One (or more) tagger input variable has an out-of-range value, setting score to -666
ToolSvc.TopTagger                                 WARNING One (or more) tagger input variable has an out-of-range value, setting score to -666
ToolSvc.TopTagger                                 WARNING One (or more) tagger input variable has an out-of-range value, setting score to -666
SUSYToolsAlg                                      WARNING No PV found for this event! Skipping...
ToolSvc.TopTagger                                 WARNING One (or more) tagger input variable has an out-of-range value, setting score to -666
ToolSvc.TopTagger                                 WARNING One (or more) tagger input variable has an out-of-range value, setting score to -666
ToolSvc.TopTagger                                 WARNING One (or more) tagger input variable has an out-of-range value, setting score to -666
		CalibrationDataInterfaceROOT object out-of-bounds summary:
			No issues found
